0x04d2e53a68358010013F5A89Ab7798Fe025CfB4a++s++0.5098052024841309
0x04d2e53a68358010013F5A89Ab7798Fe025CfB4a++s++23.28661060333252
0x7E5364F60ac68fA765d19dE286d8Df2f54085824++s++0.8785834312438965
0x7E5364F60ac68fA765d19dE286d8Df2f54085824++s++29.210772037506104
0xcA219D318Ea68c0626934A8FcAE6603321514617++s++0.6429681777954102
0xcA219D318Ea68c0626934A8FcAE6603321514617++s++37.54550361633301
0x17e19a9B5a619d7Cd39AE80aBd119A9dD6c4f08f++s++0.9035258293151855
0x17e19a9B5a619d7Cd39AE80aBd119A9dD6c4f08f++s++27.057557106018066
0xd07b6daaaf21A4526f8ad492ddDFf727e2020106++s++0.9030570983886719
0x04d2e53a68358010013F5A89Ab7798Fe025CfB4a++g++1.6132924556732178
0x7E5364F60ac68fA765d19dE286d8Df2f54085824++g++1.7509770393371582
0xcA219D318Ea68c0626934A8FcAE6603321514617++g++2.429147958755493
0x17e19a9B5a619d7Cd39AE80aBd119A9dD6c4f08f++g++1.5205719470977783
0xd07b6daaaf21A4526f8ad492ddDFf727e2020106++s++96.64993119239807
0xd07b6daaaf21A4526f8ad492ddDFf727e2020106++s++31.441758155822754
