022e5eb16b359b27bebf358af63d69b88258f4ccb52509bc45105ad24bf4ad50f6++s++1.3682334423065186
022e5eb16b359b27bebf358af63d69b88258f4ccb52509bc45105ad24bf4ad50f6++s++1.0731043815612793
0257bef3265f92cf7eee89c2b5177b905c7dd86b5379ddb5b24fcaefddae0bb8f6++s++0.3250861167907715
0257bef3265f92cf7eee89c2b5177b905c7dd86b5379ddb5b24fcaefddae0bb8f6++s++0.717656135559082
020a716ba2e0e53771f12e34dc6a64f79ded6059f12c348aeb5e4da3242acf1d88++s++0.8649568557739258
020a716ba2e0e53771f12e34dc6a64f79ded6059f12c348aeb5e4da3242acf1d88++s++1.4851863384246826
03cc9129be122f7b9a799ea32744f2838ae07bed0a08813ee2e436cf320191ff56++s++1.289646863937378
03cc9129be122f7b9a799ea32744f2838ae07bed0a08813ee2e436cf320191ff56++s++1.1648578643798828
0203557f06b199dd84372dd78ab153369f597f3a587c47622277a24310e066c37c++s++1.6138148307800293
0203557f06b199dd84372dd78ab153369f597f3a587c47622277a24310e066c37c++s++1.2805931568145752
036ddfc40da6cf9ad3c8f17db1049a3733f34d52ebac55c40f26b34f3a67423bfb++s++0.706294059753418
036ddfc40da6cf9ad3c8f17db1049a3733f34d52ebac55c40f26b34f3a67423bfb++s++0.8308534622192383
032afa3820faf25a3cecfa90e726ef541b92a4d2d7eebfff35dff78a0dcc199818++s++0.8902237415313721
032afa3820faf25a3cecfa90e726ef541b92a4d2d7eebfff35dff78a0dcc199818++s++0.8056619167327881
0398c66819442b623fb41201e1bb3a8793d6f637d81c1e181c3e7c2bdd67bf5722++s++0.41514110565185547
0398c66819442b623fb41201e1bb3a8793d6f637d81c1e181c3e7c2bdd67bf5722++s++1.3598768711090088
02365a3477baca6dcfb213989159b231e3bac7d9047fa3f26624b1d4fb1ab5ea3d++s++1.4929537773132324
02365a3477baca6dcfb213989159b231e3bac7d9047fa3f26624b1d4fb1ab5ea3d++s++0.849259614944458
037da79215684049066b648afb0b1736ec12cbb1594468c3b861fb892b61bab372++s++0.5950508117675781
037da79215684049066b648afb0b1736ec12cbb1594468c3b861fb892b61bab372++s++1.0070185661315918
03acbe8f94c5ca4d6ac7ed0376599f3968d30d544ca9d7c99998547087d6b266db++s++0.29558897018432617
03acbe8f94c5ca4d6ac7ed0376599f3968d30d544ca9d7c99998547087d6b266db++s++0.8189945220947266
03be378d06d1d3c0482b5351fe146570f4f008892a0016f503d8b3b4db57e828c9++s++0.40259766578674316
03be378d06d1d3c0482b5351fe146570f4f008892a0016f503d8b3b4db57e828c9++s++0.7481873035430908
026eeaf6f9209afacd152ec74205396ac82ad63ed96ff04f66dd06eb11602af748++s++0.3573288917541504
026eeaf6f9209afacd152ec74205396ac82ad63ed96ff04f66dd06eb11602af748++s++0.769977331161499
0264b368bf952e1ba5bdf9e759bdb5a884b362f63437388d3a11830dde8211f731++s++0.33985471725463867
0264b368bf952e1ba5bdf9e759bdb5a884b362f63437388d3a11830dde8211f731++s++0.8411357402801514
03c2f6e81e3ca181084147de07875c6de2c50fa7d9fa5babeea887fe9a7d61a9ec++s++0.21656298637390137
03c2f6e81e3ca181084147de07875c6de2c50fa7d9fa5babeea887fe9a7d61a9ec++s++0.7251834869384766
03591f6a016634afdbd1fe962fcc5fe9556b155af9786d16731c74119c8aff4925++s++0.4113430976867676
03591f6a016634afdbd1fe962fcc5fe9556b155af9786d16731c74119c8aff4925++s++0.8747663497924805
028a6da35cc045bda79c7f685b852ebe3c416385569bf69bb8ebcee4e211254b34++s++0.2495894432067871
028a6da35cc045bda79c7f685b852ebe3c416385569bf69bb8ebcee4e211254b34++s++0.7198631763458252
032f6b47976af8b910cfe4dfc966aebcbe2409d06e60a6c0a632ec4a27b2eb8fab++s++0.4587419033050537
032f6b47976af8b910cfe4dfc966aebcbe2409d06e60a6c0a632ec4a27b2eb8fab++s++0.7543408870697021
02fe5a6b6a4f72406caee69b511023461008b7bd2112ab8c15f5b3ae3aa8dc35c9++s++0.3320319652557373
02fe5a6b6a4f72406caee69b511023461008b7bd2112ab8c15f5b3ae3aa8dc35c9++s++0.7894458770751953
030baffb5ec8c092b2b13dc5f6be575848381b01cb8d407e1f039612e11757a8f6++s++0.19982695579528809
0350b1386b57cdfbd59e58a0ecafbf65522e3f0b67e358cdeef6651ffb9dc4ac9a++s++0.2863016128540039
030baffb5ec8c092b2b13dc5f6be575848381b01cb8d407e1f039612e11757a8f6++s++1.7678260803222656
0350b1386b57cdfbd59e58a0ecafbf65522e3f0b67e358cdeef6651ffb9dc4ac9a++s++0.8607640266418457
038f9d8b4e867a817934261e51d13830d5dcd2f2652c2624be79e88a25e38cb81a++s++0.30938005447387695
038f9d8b4e867a817934261e51d13830d5dcd2f2652c2624be79e88a25e38cb81a++s++0.868466854095459
030855512a9954c45b48cbc722a02a3fbf5c6864f4468af3b65eff10d76cedf02a++s++0.3793196678161621
030855512a9954c45b48cbc722a02a3fbf5c6864f4468af3b65eff10d76cedf02a++s++0.7333440780639648
03dab03a10d792deaca4bcbd82e1a2a4f2808b674f99febc27cde4e477cec3c2a5++s++0.571596622467041
03dab03a10d792deaca4bcbd82e1a2a4f2808b674f99febc27cde4e477cec3c2a5++s++0.8203651905059814
02b2b8b9c56d29ca5673bca93a92af60b8c6d0a45182603a89af71af0ba387bb96++s++0.36749982833862305
02b2b8b9c56d29ca5673bca93a92af60b8c6d0a45182603a89af71af0ba387bb96++s++0.9026789665222168
039c7e5169f4a725a7bf81fd6a4a07b78d6c839f61807e68d61adc1ffdc3f08050++s++0.30158066749572754
039c7e5169f4a725a7bf81fd6a4a07b78d6c839f61807e68d61adc1ffdc3f08050++s++0.7819168567657471
02e706865fa10531c6da278c72491be29b2d54dd5388318f54fc28e17845880a46++s++0.270585298538208
02e706865fa10531c6da278c72491be29b2d54dd5388318f54fc28e17845880a46++s++0.8161211013793945
035fc908ebc263fdbd385be801771d1f1b06e1ab0471724c268068381983d9ac2b++s++0.30517053604125977
035fc908ebc263fdbd385be801771d1f1b06e1ab0471724c268068381983d9ac2b++s++1.2342431545257568
0351fca31b5b93f916835b98f7b1d1915483b8ed22dfb57b9702941d303b67daa7++s++1.1944658756256104
0351fca31b5b93f916835b98f7b1d1915483b8ed22dfb57b9702941d303b67daa7++s++1.0674564838409424
033ff7b16b20bc4492fed365ccb3e52766cf20158ca76153a026051f1ef2b2c487++s++1.2368881702423096
033ff7b16b20bc4492fed365ccb3e52766cf20158ca76153a026051f1ef2b2c487++s++0.8392665386199951
03c44ecd95a6fd93d32fd706f29c159b0bef127e882e042a1d44b3e20995066f7b++s++0.4589962959289551
03c44ecd95a6fd93d32fd706f29c159b0bef127e882e042a1d44b3e20995066f7b++s++1.0815980434417725
0279b6c401ec9f8d7d8a3f0e4131fbb309e039824f35e9118ffb059302a5ef1450++s++0.35253381729125977
0279b6c401ec9f8d7d8a3f0e4131fbb309e039824f35e9118ffb059302a5ef1450++s++0.998176097869873
032929e7f8aafdfc74d4613420922eea1d1cc4f6622c76b8569564c04561d6a26f++s++0.24025797843933105
032929e7f8aafdfc74d4613420922eea1d1cc4f6622c76b8569564c04561d6a26f++s++0.7396588325500488
03cd8f8586c553d32f628f7010e06fc0c5b2bde52c5ef526fdf3f90311972b3d20++s++0.26710009574890137
03cd8f8586c553d32f628f7010e06fc0c5b2bde52c5ef526fdf3f90311972b3d20++s++1.3671529293060303
02f975adda990f91ec6b1b7e9318663e7ade3307994820cfe59f86fe24a08096d7++s++1.0208568572998047
02f975adda990f91ec6b1b7e9318663e7ade3307994820cfe59f86fe24a08096d7++s++0.7854537963867188
0238c06df35554227030ff71e2814611035415b348730112658c816817dfea2b55++s++1.39439058303833
0238c06df35554227030ff71e2814611035415b348730112658c816817dfea2b55++s++1.5661048889160156
022b0fc3853a9aee609c4ee64b13e91191248645689b746238cc8f62cc86580b47++s++0.5242505073547363
022b0fc3853a9aee609c4ee64b13e91191248645689b746238cc8f62cc86580b47++s++0.9331166744232178
03d72a8ce4cc27b387298229c548d6c4acf63bc1fd25b7091783281790f7bb49bb++s++0.27838683128356934
03d72a8ce4cc27b387298229c548d6c4acf63bc1fd25b7091783281790f7bb49bb++s++0.9160397052764893
02d066962a2dc3f793b1dde8ebf44f9d7e20091b5e97fa83734c76a3665274e9f1++s++0.26783180236816406
02d066962a2dc3f793b1dde8ebf44f9d7e20091b5e97fa83734c76a3665274e9f1++s++1.4634933471679688
0243b38aad20ba6ebfcf9396fab5bfe6944bec79dc5c965b79e7c9ee9789b09219++s++0.33927297592163086
0243b38aad20ba6ebfcf9396fab5bfe6944bec79dc5c965b79e7c9ee9789b09219++s++0.9345142841339111
03b53f3b10e85608692e18053ce79600e9f36a4156b682ee2279a4531040b74e24++s++0.44302940368652344
03b53f3b10e85608692e18053ce79600e9f36a4156b682ee2279a4531040b74e24++s++0.7730410099029541
026a3a419a5ac2fc665b1c78e99bb4d3d92b53f2e3f72771e532090ed23ae2aa68++s++0.6908488273620605
026a3a419a5ac2fc665b1c78e99bb4d3d92b53f2e3f72771e532090ed23ae2aa68++s++1.4785070419311523
03c015c71e88e105b0554402b58aff9743f8f9d5dc991a71cc0413cdf1fbf447f2++s++0.37784838676452637
03c015c71e88e105b0554402b58aff9743f8f9d5dc991a71cc0413cdf1fbf447f2++s++1.057849645614624
02596aade5085d568b8f99235fc2172d1506bfb7408b6fa8a9f232e73b56595201++s++0.3847513198852539
02596aade5085d568b8f99235fc2172d1506bfb7408b6fa8a9f232e73b56595201++s++0.7708225250244141
03e44d2308d6be2dfbf1979d0f0437330545d92cb8e0d852dfb588ed97c0644645++s++0.32713866233825684
03e44d2308d6be2dfbf1979d0f0437330545d92cb8e0d852dfb588ed97c0644645++s++0.7504994869232178
03b9333133849e6dbc52e910975814091be2dfcc7c95d092f620b2a8eab91e5506++s++0.2738182544708252
03f16767248b0fec6679a3aaf1863a210fc33c8b475f7c4b1e733d43da0d734ddf++s++0.31459474563598633
03b9333133849e6dbc52e910975814091be2dfcc7c95d092f620b2a8eab91e5506++s++2.551525592803955
036969ac38b900461ea5e526a67b3edc660c65882f07d955309f2ffa5abb492f4a++s++0.20914435386657715
03f16767248b0fec6679a3aaf1863a210fc33c8b475f7c4b1e733d43da0d734ddf++s++1.122187614440918
036969ac38b900461ea5e526a67b3edc660c65882f07d955309f2ffa5abb492f4a++s++0.8901700973510742
03cfe3f528046579da3c3bf4506ef37bc64b9a35916cc3e964b9fe0f498172d4f6++s++0.2732698917388916
03cfe3f528046579da3c3bf4506ef37bc64b9a35916cc3e964b9fe0f498172d4f6++s++0.6171913146972656
0211d99461b7f114400d96d22bdc9649917bcb2301359e5f9d9ab5c13191784e1d++s++0.27291035652160645
022e5eb16b359b27bebf358af63d69b88258f4ccb52509bc45105ad24bf4ad50f6++g++0.41903233528137207
0211d99461b7f114400d96d22bdc9649917bcb2301359e5f9d9ab5c13191784e1d++s++0.8013126850128174
0257bef3265f92cf7eee89c2b5177b905c7dd86b5379ddb5b24fcaefddae0bb8f6++g++0.242828369140625
020a716ba2e0e53771f12e34dc6a64f79ded6059f12c348aeb5e4da3242acf1d88++g++0.35035181045532227
03cc9129be122f7b9a799ea32744f2838ae07bed0a08813ee2e436cf320191ff56++g++0.33190441131591797
0203557f06b199dd84372dd78ab153369f597f3a587c47622277a24310e066c37c++g++0.37271595001220703
036ddfc40da6cf9ad3c8f17db1049a3733f34d52ebac55c40f26b34f3a67423bfb++g++0.25636839866638184
032afa3820faf25a3cecfa90e726ef541b92a4d2d7eebfff35dff78a0dcc199818++g++0.3485395908355713
0398c66819442b623fb41201e1bb3a8793d6f637d81c1e181c3e7c2bdd67bf5722++g++0.3157365322113037
02365a3477baca6dcfb213989159b231e3bac7d9047fa3f26624b1d4fb1ab5ea3d++g++0.3672194480895996
037da79215684049066b648afb0b1736ec12cbb1594468c3b861fb892b61bab372++g++0.33545589447021484
03acbe8f94c5ca4d6ac7ed0376599f3968d30d544ca9d7c99998547087d6b266db++g++0.2792389392852783
03be378d06d1d3c0482b5351fe146570f4f008892a0016f503d8b3b4db57e828c9++g++0.3244163990020752
026eeaf6f9209afacd152ec74205396ac82ad63ed96ff04f66dd06eb11602af748++g++0.34979248046875
0264b368bf952e1ba5bdf9e759bdb5a884b362f63437388d3a11830dde8211f731++g++0.3593716621398926
03c2f6e81e3ca181084147de07875c6de2c50fa7d9fa5babeea887fe9a7d61a9ec++g++0.413973331451416
03591f6a016634afdbd1fe962fcc5fe9556b155af9786d16731c74119c8aff4925++g++0.3579699993133545
028a6da35cc045bda79c7f685b852ebe3c416385569bf69bb8ebcee4e211254b34++g++0.3399927616119385
032f6b47976af8b910cfe4dfc966aebcbe2409d06e60a6c0a632ec4a27b2eb8fab++g++0.42491579055786133
02fe5a6b6a4f72406caee69b511023461008b7bd2112ab8c15f5b3ae3aa8dc35c9++g++0.2794179916381836
030baffb5ec8c092b2b13dc5f6be575848381b01cb8d407e1f039612e11757a8f6++g++0.34638381004333496
0350b1386b57cdfbd59e58a0ecafbf65522e3f0b67e358cdeef6651ffb9dc4ac9a++g++0.3402223587036133
038f9d8b4e867a817934261e51d13830d5dcd2f2652c2624be79e88a25e38cb81a++g++0.34218430519104004
030855512a9954c45b48cbc722a02a3fbf5c6864f4468af3b65eff10d76cedf02a++g++0.34111809730529785
03dab03a10d792deaca4bcbd82e1a2a4f2808b674f99febc27cde4e477cec3c2a5++g++0.28038954734802246
02b2b8b9c56d29ca5673bca93a92af60b8c6d0a45182603a89af71af0ba387bb96++g++0.39681529998779297
039c7e5169f4a725a7bf81fd6a4a07b78d6c839f61807e68d61adc1ffdc3f08050++g++0.35743212699890137
02e706865fa10531c6da278c72491be29b2d54dd5388318f54fc28e17845880a46++g++0.30819177627563477
035fc908ebc263fdbd385be801771d1f1b06e1ab0471724c268068381983d9ac2b++g++0.3945159912109375
0351fca31b5b93f916835b98f7b1d1915483b8ed22dfb57b9702941d303b67daa7++g++0.33276844024658203
033ff7b16b20bc4492fed365ccb3e52766cf20158ca76153a026051f1ef2b2c487++g++0.35299015045166016
03c44ecd95a6fd93d32fd706f29c159b0bef127e882e042a1d44b3e20995066f7b++g++0.40052080154418945
0279b6c401ec9f8d7d8a3f0e4131fbb309e039824f35e9118ffb059302a5ef1450++g++0.32756590843200684
032929e7f8aafdfc74d4613420922eea1d1cc4f6622c76b8569564c04561d6a26f++g++0.3670027256011963
03cd8f8586c553d32f628f7010e06fc0c5b2bde52c5ef526fdf3f90311972b3d20++g++0.3010437488555908
02f975adda990f91ec6b1b7e9318663e7ade3307994820cfe59f86fe24a08096d7++g++0.31548309326171875
0238c06df35554227030ff71e2814611035415b348730112658c816817dfea2b55++g++0.32677459716796875
022b0fc3853a9aee609c4ee64b13e91191248645689b746238cc8f62cc86580b47++g++0.32401371002197266
03d72a8ce4cc27b387298229c548d6c4acf63bc1fd25b7091783281790f7bb49bb++g++0.3401920795440674
02d066962a2dc3f793b1dde8ebf44f9d7e20091b5e97fa83734c76a3665274e9f1++g++0.33808231353759766
0243b38aad20ba6ebfcf9396fab5bfe6944bec79dc5c965b79e7c9ee9789b09219++g++0.3199143409729004
03b53f3b10e85608692e18053ce79600e9f36a4156b682ee2279a4531040b74e24++g++0.33281612396240234
026a3a419a5ac2fc665b1c78e99bb4d3d92b53f2e3f72771e532090ed23ae2aa68++g++0.6779685020446777
03c015c71e88e105b0554402b58aff9743f8f9d5dc991a71cc0413cdf1fbf447f2++g++0.33742523193359375
02596aade5085d568b8f99235fc2172d1506bfb7408b6fa8a9f232e73b56595201++g++0.32792210578918457
03e44d2308d6be2dfbf1979d0f0437330545d92cb8e0d852dfb588ed97c0644645++g++0.3226292133331299
03b9333133849e6dbc52e910975814091be2dfcc7c95d092f620b2a8eab91e5506++g++0.3230454921722412
03f16767248b0fec6679a3aaf1863a210fc33c8b475f7c4b1e733d43da0d734ddf++g++0.3237879276275635
036969ac38b900461ea5e526a67b3edc660c65882f07d955309f2ffa5abb492f4a++g++0.3713409900665283
03cfe3f528046579da3c3bf4506ef37bc64b9a35916cc3e964b9fe0f498172d4f6++g++0.6903543472290039
0211d99461b7f114400d96d22bdc9649917bcb2301359e5f9d9ab5c13191784e1d++g++0.38355398178100586
