03c40eb925daf17a6e41c99cbd813defdb1d5c288e1b57602549fb0ff0a6616215++s++1.1868023872375488
03c40eb925daf17a6e41c99cbd813defdb1d5c288e1b57602549fb0ff0a6616215++s++0.7291018962860107
02862b46239c2c47b6e68a15a8db159816ea9682f291fe82983247ea92a1ac254a++s++0.27847838401794434
02862b46239c2c47b6e68a15a8db159816ea9682f291fe82983247ea92a1ac254a++s++1.2862286567687988
02d5223195ebca595208f5ce6bdbbd56718fdf88670b528b22c484ae8cdb8dee06++s++0.26218724250793457
02d5223195ebca595208f5ce6bdbbd56718fdf88670b528b22c484ae8cdb8dee06++s++0.7438845634460449
02d5dd053b94db9ade23b244a1366a5d554c9394411ed084321f3e9addc46f8efb++s++0.28016138076782227
02d5dd053b94db9ade23b244a1366a5d554c9394411ed084321f3e9addc46f8efb++s++0.6488003730773926
039729d795d5d02d854fd9e35f83748c544e462cc633537ba4af1784fd43431888++s++0.27976489067077637
039729d795d5d02d854fd9e35f83748c544e462cc633537ba4af1784fd43431888++s++0.8025956153869629
03fbbf5f77f15a7f023f0a991973af313e62d18ce177145aceb9348a509e07aaae++s++0.20891189575195312
03fbbf5f77f15a7f023f0a991973af313e62d18ce177145aceb9348a509e07aaae++s++0.8570208549499512
025faee147697e327905ff17662f5ab6f1cc61dcfdd1724fb8371054503399b1b8++s++0.1981048583984375
025faee147697e327905ff17662f5ab6f1cc61dcfdd1724fb8371054503399b1b8++s++0.8154926300048828
0215b0806755fc4dfe65a9e8913c23472ab410f4ab2a278e0beba20beae9555333++s++0.2160015106201172
0215b0806755fc4dfe65a9e8913c23472ab410f4ab2a278e0beba20beae9555333++s++0.758763313293457
03626ea778ed99ef0b7400426094b06db8a4c736982dc61b8758a5346c6c9bf068++s++0.18255281448364258
03626ea778ed99ef0b7400426094b06db8a4c736982dc61b8758a5346c6c9bf068++s++0.7387239933013916
0203be13b51afa20de1dc1b4162d60638ec59c00a0d15b40ae7072a4ad380b8e7c++s++0.3460347652435303
0203be13b51afa20de1dc1b4162d60638ec59c00a0d15b40ae7072a4ad380b8e7c++s++0.76181960105896
03cd45f22f5179beb9c65a5084ed93668ead3ddf3a1f7cbf620c90ae34b7982d16++s++0.33106374740600586
03cd45f22f5179beb9c65a5084ed93668ead3ddf3a1f7cbf620c90ae34b7982d16++s++0.7865047454833984
0300fc831e800c7f4fb845e453de08e6777975bd62a380422ee6da08d61f614475++s++0.6517746448516846
0300fc831e800c7f4fb845e453de08e6777975bd62a380422ee6da08d61f614475++s++0.6793174743652344
02889f954a4280c736935824120229d810abbaf4517c273efb62a621457ba662e3++s++0.2600085735321045
02889f954a4280c736935824120229d810abbaf4517c273efb62a621457ba662e3++s++0.763481855392456
0232ec415a8c9eb6926e8c7b11458e2e115566dfdf3a77e95a7fb6c1395468e913++s++0.2009873390197754
0232ec415a8c9eb6926e8c7b11458e2e115566dfdf3a77e95a7fb6c1395468e913++s++0.7129344940185547
03f9427012c9b31466ce334e61c6d9f0e67bb359f6ffd957f5a1438182659ccd3c++s++0.2988550662994385
03f9427012c9b31466ce334e61c6d9f0e67bb359f6ffd957f5a1438182659ccd3c++s++0.7990639209747314
0363c69370a49d6bbf55dee9c0c89b013f8d15907df74de850f6c0c21946684d6f++s++0.39177703857421875
0363c69370a49d6bbf55dee9c0c89b013f8d15907df74de850f6c0c21946684d6f++s++0.6794595718383789
023052dfa65c0b7d210d4158e5687b72cde9ca0a4abb98a7888eb744f0cfb8902f++s++0.22858357429504395
023052dfa65c0b7d210d4158e5687b72cde9ca0a4abb98a7888eb744f0cfb8902f++s++0.7791593074798584
03ad0e4a62a03a3b25182964327c8ed8d2998f25bd9a8cc0fac025779a47c64ef2++s++0.2674272060394287
03ad0e4a62a03a3b25182964327c8ed8d2998f25bd9a8cc0fac025779a47c64ef2++s++0.8498845100402832
023052dfa65c0b7d210d4158e5687b72cde9ca0a4abb98a7888eb744f0cfb8902f++s++0.3353428840637207
02464b14e4375587637fcc14b1d9f82231a45cd9ffe7d7481001c3079b7de7e2b7++s++0.22461771965026855
02464b14e4375587637fcc14b1d9f82231a45cd9ffe7d7481001c3079b7de7e2b7++s++0.879920482635498
022dd7599ea833cbb6611fc0e2d31435ec16dbe36b30295bf26573ff9bc74ddcd8++s++0.28746843338012695
022dd7599ea833cbb6611fc0e2d31435ec16dbe36b30295bf26573ff9bc74ddcd8++s++0.6816310882568359
02251b27ba1203b366c910e0419355703ac2d9f9950fb1fb6a9a3b50722f9bab7f++s++0.1992805004119873
02251b27ba1203b366c910e0419355703ac2d9f9950fb1fb6a9a3b50722f9bab7f++s++0.6263372898101807
02004363bb8b2306e02eab6bd8d3c663ddbb0b2395078fe05e6d5e690df578b85b++s++0.1758718490600586
02004363bb8b2306e02eab6bd8d3c663ddbb0b2395078fe05e6d5e690df578b85b++s++0.8130192756652832
02885ba9404c15ff3cc45c2610b5543595e4c68681c731a5e347c4d6297979545b++s++0.24042463302612305
02885ba9404c15ff3cc45c2610b5543595e4c68681c731a5e347c4d6297979545b++s++0.658236026763916
02885ba9404c15ff3cc45c2610b5543595e4c68681c731a5e347c4d6297979545b++s++0.37044548988342285
02056f3744a40b3e3dbc21cdc83f46e62efa7dcae1b5cb24d2992339ad65acb2fb++s++0.24459218978881836
02056f3744a40b3e3dbc21cdc83f46e62efa7dcae1b5cb24d2992339ad65acb2fb++s++0.7877521514892578
03f3195f05653bbc35b96449a3be8c3a4bdfcc5ec41d1fe31e12d88bb2eeae8157++s++0.29948925971984863
03f3195f05653bbc35b96449a3be8c3a4bdfcc5ec41d1fe31e12d88bb2eeae8157++s++0.8288218975067139
025daa3731c1b214d832590504d9b06bed77611b10ec4630762bd64d72dfedfe10++s++0.2886016368865967
025daa3731c1b214d832590504d9b06bed77611b10ec4630762bd64d72dfedfe10++s++0.7754888534545898
028c3c35c374698022e3edc1cc6217820888b5243a64781e5f8956e8147c0f8a2b++s++0.25376009941101074
028c3c35c374698022e3edc1cc6217820888b5243a64781e5f8956e8147c0f8a2b++s++0.705847978591919
027f57525d94754f9c44e8f7b4744dddf98e551d8a723b53ba59a5b01f0f140183++s++0.26671314239501953
027f57525d94754f9c44e8f7b4744dddf98e551d8a723b53ba59a5b01f0f140183++s++0.660198450088501
02ebf894b16151e7126c1bb4ab1bdc49ec9e34ab8ad2555b7bcac0beaee4c32797++s++0.2909433841705322
02ebf894b16151e7126c1bb4ab1bdc49ec9e34ab8ad2555b7bcac0beaee4c32797++s++0.7268087863922119
03f875d85e9abf7e7db90ce63082f6bb057aa44783397e9996154660c185b51da9++s++0.2430565357208252
03f875d85e9abf7e7db90ce63082f6bb057aa44783397e9996154660c185b51da9++s++0.725445032119751
03d7d67468bc8953c281768359eb9164b359b40cc203270f3ba61fc50abfc9c596++s++0.281095027923584
03d7d67468bc8953c281768359eb9164b359b40cc203270f3ba61fc50abfc9c596++s++0.9154789447784424
02f4723967173f980545a4fc641c085d687ec654257618f924bfcca732ad1753fa++s++0.2924928665161133
02f4723967173f980545a4fc641c085d687ec654257618f924bfcca732ad1753fa++s++0.6723477840423584
021d8d79e4964e636f82c3a23794087b835ead6f89b0004d73eaeeea7317c3d6b5++s++0.254547119140625
021d8d79e4964e636f82c3a23794087b835ead6f89b0004d73eaeeea7317c3d6b5++s++0.6926548480987549
034da28fb6e76c9089fc87fd3679dc35a192d8fd4ca4b9ba028b3bf811651065b1++s++0.29909563064575195
034da28fb6e76c9089fc87fd3679dc35a192d8fd4ca4b9ba028b3bf811651065b1++s++0.746035099029541
0304ca78a94039575e371bc481dbcf77f6941797de3dc90390dc9340eed6ff4ebf++s++0.19046783447265625
0304ca78a94039575e371bc481dbcf77f6941797de3dc90390dc9340eed6ff4ebf++s++0.9587042331695557
0325d79cbfbd9dbe5664459768d2a925871e232952d09c69892fb911cd48022dba++s++0.18220186233520508
0325d79cbfbd9dbe5664459768d2a925871e232952d09c69892fb911cd48022dba++s++0.870551347732544
022f71b7e7d9a8147093e3386f523b82b2d6e862abf31f059334cf5a8b9dee6949++s++0.2641880512237549
022f71b7e7d9a8147093e3386f523b82b2d6e862abf31f059334cf5a8b9dee6949++s++0.6422128677368164
0326abf4b1e5cc1890e360c6cfc8c02eda79ec5c05bb8ee084c0e497f821fbdd84++s++0.6284677982330322
0326abf4b1e5cc1890e360c6cfc8c02eda79ec5c05bb8ee084c0e497f821fbdd84++s++0.7329287528991699
02399e7a87e36afe3fb3c336a60bd32155f2823a945183c43e217e2b9f0f2eef3d++s++0.2990398406982422
02399e7a87e36afe3fb3c336a60bd32155f2823a945183c43e217e2b9f0f2eef3d++s++0.7590587139129639
0360ca34bf7da3812241952e999d68ed6be7783fd38bcb8c6cffd5716c0f07a05a++s++0.216461181640625
0360ca34bf7da3812241952e999d68ed6be7783fd38bcb8c6cffd5716c0f07a05a++s++0.9310729503631592
03e2a2b017d453fb67ee413ccf355e6410a617262e58eea5b42f180c8f1c31d14c++s++0.3809478282928467
03e2a2b017d453fb67ee413ccf355e6410a617262e58eea5b42f180c8f1c31d14c++s++0.6653685569763184
0331b2f595c4b14878fa7fd1a8dce7758d80a65ea7e509639ac9763b6ecc821207++s++0.19291162490844727
0331b2f595c4b14878fa7fd1a8dce7758d80a65ea7e509639ac9763b6ecc821207++s++0.6781847476959229
0352cef206d1e2354a0d92e5898addfbb7732b45fe3d70d05a734953816ce658f0++s++0.17329812049865723
0352cef206d1e2354a0d92e5898addfbb7732b45fe3d70d05a734953816ce658f0++s++0.9447853565216064
03783cb8e3a94174c53364537c805d9cbcab474532cb248c4736346ac0927b581c++s++0.25962138175964355
03783cb8e3a94174c53364537c805d9cbcab474532cb248c4736346ac0927b581c++s++0.7515029907226562
03caad0f62b05e9ff31db7681ea8be1d62b5be1b1b667c7d94c48299c92bf32a8f++s++0.2675166130065918
03caad0f62b05e9ff31db7681ea8be1d62b5be1b1b667c7d94c48299c92bf32a8f++s++0.7898383140563965
02eb4cb3b3785ce1f6871e1c0e666bd8afbafd1da0abfea2dc4796678faf818bf2++s++0.23715901374816895
02eb4cb3b3785ce1f6871e1c0e666bd8afbafd1da0abfea2dc4796678faf818bf2++s++0.69051194190979
033ebb6d61b1169d0c5bef32588b8a9a81b9607a9bacf983364b8cc4ed2e0cb110++s++0.24540305137634277
033ebb6d61b1169d0c5bef32588b8a9a81b9607a9bacf983364b8cc4ed2e0cb110++s++0.727813720703125
0309c59f146134636b5e1a8a696051c8858ba41002454f0d01b0b3992ae5b5621c++s++0.25089383125305176
0309c59f146134636b5e1a8a696051c8858ba41002454f0d01b0b3992ae5b5621c++s++0.8290567398071289
0286d9cdd53d8dcbf8042427491ca795cfb5b4f20c4c0be5813fba1a79cad32b97++s++0.3089578151702881
0286d9cdd53d8dcbf8042427491ca795cfb5b4f20c4c0be5813fba1a79cad32b97++s++0.7251741886138916
034fa5a4b25789c3be68d5abbed9a753d02d34ceb3db93389a4ab20fdb3dfe9fa2++s++0.2661776542663574
03c40eb925daf17a6e41c99cbd813defdb1d5c288e1b57602549fb0ff0a6616215++g++0.36343812942504883
034fa5a4b25789c3be68d5abbed9a753d02d34ceb3db93389a4ab20fdb3dfe9fa2++s++0.8895735740661621
02862b46239c2c47b6e68a15a8db159816ea9682f291fe82983247ea92a1ac254a++g++0.31035542488098145
02d5223195ebca595208f5ce6bdbbd56718fdf88670b528b22c484ae8cdb8dee06++g++0.3544769287109375
02d5dd053b94db9ade23b244a1366a5d554c9394411ed084321f3e9addc46f8efb++g++0.33859777450561523
039729d795d5d02d854fd9e35f83748c544e462cc633537ba4af1784fd43431888++g++0.32991790771484375
03fbbf5f77f15a7f023f0a991973af313e62d18ce177145aceb9348a509e07aaae++g++0.34959983825683594
025faee147697e327905ff17662f5ab6f1cc61dcfdd1724fb8371054503399b1b8++g++0.36313486099243164
0215b0806755fc4dfe65a9e8913c23472ab410f4ab2a278e0beba20beae9555333++g++0.26431870460510254
03626ea778ed99ef0b7400426094b06db8a4c736982dc61b8758a5346c6c9bf068++g++0.30828380584716797
0203be13b51afa20de1dc1b4162d60638ec59c00a0d15b40ae7072a4ad380b8e7c++g++0.34137535095214844
03cd45f22f5179beb9c65a5084ed93668ead3ddf3a1f7cbf620c90ae34b7982d16++g++0.30196332931518555
0300fc831e800c7f4fb845e453de08e6777975bd62a380422ee6da08d61f614475++g++0.3140881061553955
02889f954a4280c736935824120229d810abbaf4517c273efb62a621457ba662e3++g++0.287977933883667
0232ec415a8c9eb6926e8c7b11458e2e115566dfdf3a77e95a7fb6c1395468e913++g++0.3032090663909912
03f9427012c9b31466ce334e61c6d9f0e67bb359f6ffd957f5a1438182659ccd3c++g++0.30010032653808594
0363c69370a49d6bbf55dee9c0c89b013f8d15907df74de850f6c0c21946684d6f++g++0.35143470764160156
023052dfa65c0b7d210d4158e5687b72cde9ca0a4abb98a7888eb744f0cfb8902f++g++0.3542439937591553
03ad0e4a62a03a3b25182964327c8ed8d2998f25bd9a8cc0fac025779a47c64ef2++g++0.3320314884185791
02464b14e4375587637fcc14b1d9f82231a45cd9ffe7d7481001c3079b7de7e2b7++g++0.36548471450805664
022dd7599ea833cbb6611fc0e2d31435ec16dbe36b30295bf26573ff9bc74ddcd8++g++0.32259464263916016
02251b27ba1203b366c910e0419355703ac2d9f9950fb1fb6a9a3b50722f9bab7f++g++0.3261239528656006
02004363bb8b2306e02eab6bd8d3c663ddbb0b2395078fe05e6d5e690df578b85b++g++0.3290259838104248
02885ba9404c15ff3cc45c2610b5543595e4c68681c731a5e347c4d6297979545b++g++0.3263847827911377
02056f3744a40b3e3dbc21cdc83f46e62efa7dcae1b5cb24d2992339ad65acb2fb++g++0.3177051544189453
03f3195f05653bbc35b96449a3be8c3a4bdfcc5ec41d1fe31e12d88bb2eeae8157++g++0.3792078495025635
025daa3731c1b214d832590504d9b06bed77611b10ec4630762bd64d72dfedfe10++g++0.3757340908050537
028c3c35c374698022e3edc1cc6217820888b5243a64781e5f8956e8147c0f8a2b++g++0.3858816623687744
027f57525d94754f9c44e8f7b4744dddf98e551d8a723b53ba59a5b01f0f140183++g++0.3550879955291748
02ebf894b16151e7126c1bb4ab1bdc49ec9e34ab8ad2555b7bcac0beaee4c32797++g++0.38669657707214355
03f875d85e9abf7e7db90ce63082f6bb057aa44783397e9996154660c185b51da9++g++0.379730224609375
03d7d67468bc8953c281768359eb9164b359b40cc203270f3ba61fc50abfc9c596++g++0.36962318420410156
02f4723967173f980545a4fc641c085d687ec654257618f924bfcca732ad1753fa++g++0.38217854499816895
021d8d79e4964e636f82c3a23794087b835ead6f89b0004d73eaeeea7317c3d6b5++g++0.36337780952453613
034da28fb6e76c9089fc87fd3679dc35a192d8fd4ca4b9ba028b3bf811651065b1++g++0.3749501705169678
0304ca78a94039575e371bc481dbcf77f6941797de3dc90390dc9340eed6ff4ebf++g++0.3800334930419922
0325d79cbfbd9dbe5664459768d2a925871e232952d09c69892fb911cd48022dba++g++0.36705875396728516
022f71b7e7d9a8147093e3386f523b82b2d6e862abf31f059334cf5a8b9dee6949++g++0.37668466567993164
0326abf4b1e5cc1890e360c6cfc8c02eda79ec5c05bb8ee084c0e497f821fbdd84++g++0.35283613204956055
02399e7a87e36afe3fb3c336a60bd32155f2823a945183c43e217e2b9f0f2eef3d++g++0.37990880012512207
0360ca34bf7da3812241952e999d68ed6be7783fd38bcb8c6cffd5716c0f07a05a++g++0.3750026226043701
03e2a2b017d453fb67ee413ccf355e6410a617262e58eea5b42f180c8f1c31d14c++g++0.3594937324523926
0331b2f595c4b14878fa7fd1a8dce7758d80a65ea7e509639ac9763b6ecc821207++g++0.4058191776275635
0352cef206d1e2354a0d92e5898addfbb7732b45fe3d70d05a734953816ce658f0++g++0.3812260627746582
03783cb8e3a94174c53364537c805d9cbcab474532cb248c4736346ac0927b581c++g++1.4729647636413574
03caad0f62b05e9ff31db7681ea8be1d62b5be1b1b667c7d94c48299c92bf32a8f++g++0.37157511711120605
02eb4cb3b3785ce1f6871e1c0e666bd8afbafd1da0abfea2dc4796678faf818bf2++g++0.3616011142730713
033ebb6d61b1169d0c5bef32588b8a9a81b9607a9bacf983364b8cc4ed2e0cb110++g++0.3533642292022705
0309c59f146134636b5e1a8a696051c8858ba41002454f0d01b0b3992ae5b5621c++g++0.34242844581604004
0286d9cdd53d8dcbf8042427491ca795cfb5b4f20c4c0be5813fba1a79cad32b97++g++0.3758831024169922
034fa5a4b25789c3be68d5abbed9a753d02d34ceb3db93389a4ab20fdb3dfe9fa2++g++0.3624598979949951
